…
The function generates descriptive statistics as a gt_table and
potentially saves them to an Excel file.

## Examples

``` r
pids_cases <- unique(sample_Demo[sex == "M"]$primaryid)
RG <- unique(sample_Demo[sex == "M"]$primaryid)

# Generate descriptive statistics for cases
new_descriptive(
  pids_cases = pids_cases, save_in_excel = FALSE
)
#> Warning: Variables role_cod and time_to_onset not considered. If you want to include them please provide the drug investigated
#> # A tibble: 122 × 3
#>    `**Characteristic**`    N_cases `%_cases`
#>    <chr>                   <chr>   <chr>    
#>  1 N                       355     ""       
#>  2 sex                     NA       NA      
#>  3 Male                    355     "100.00" 
#>  4 Submission              NA       NA      
#>  5 Direct                  24      "6.76"   
#>  6 Expedited               181     "50.99"  
#>  7 Periodic                150     "42.25"  
#>  8 Reporter                NA       NA      
#>  9 Consumer                163     "48.22"  
#> 10 Healthcare practitioner 20      "5.92"   
#> # ℹ 112 more rows

# Generate descriptive statistics for cases and non-cases
new_descriptive(
  pids_cases = pids_cases, RG = RG, save_in_excel = FALSE
)
#> Warning: Variables role_cod and time_to_onset not considered. If you want to include them please provide the drug investigated
#> Warning: NAs introduced by coercion
#> Warning: number of columns of result, 6, is not a multiple of vector length 7 of arg 1
#> # A tibble: 122 × 6
#>    `**Characteristic**`  N_cases `%_cases` N_controls `%_controls` `**q-value**`
#>    <chr>                 <chr>   <chr>     <chr>      <chr>        <chr>        
#>  1 N                     355     ""        NA         ""           ""           
#>  2 __sex__               NA       NA       NA         NA           NA           
#>  3 Male                  355     "100.00"  NA         NA           NA           
#>  4 __Submission__        NA       NA       NA         NA           NA           
#>  5 Direct                24      "6.76"    NA         NA           NA           
#>  6 Expedited             181     "50.99"   NA         NA           NA           
#>  7 Periodic              150     "42.25"   NA         NA           NA           
#>  8 __Reporter__          NA       NA       NA         NA           NA           
#>  9 Consumer              163     "48.22"   NA         NA           NA           
#> 10 Healthcare practitio… 20      "5.92"    NA         NA           NA           
#> # ℹ 112 more rows
```
